<svg xmlns="http://www.w3.org/2000/svg" width="297mm" height="210mm" viewBox="0 0 1052.4 744.1">
  <g transform="translate(176.8 -306.5)">
    <g fill="none" stroke="#00f">
      <path d="M602.2 660.8h78v39h-78zm79.1.1v38.8h19.3v-15.9h-5a5.1 5.1 0 0 1-3.7 1.6 5.1 5.1 0 0 1-5.1-5.1 5.1 5.1 0 0 1 5.1-5.1 5.1 5.1 0 0 1 3.7 1.5h5V661h-19.3z"/>
      <path d="M621.2 661.2a19 19 0 0 0-19 19 19 19 0 0 0 19 19 19 19 0 0 0 16.2-9 10.4 10.4 0 0 0 2.7.4 10.4 10.4 0 0 0 10.4-10.3 10.4 10.4 0 0 0-10.4-10.4 10.4 10.4 0 0 0-2.7.4 19 19 0 0 0-16.2-9zm-20-.3v38.8h-19.4v-15.9h5a5.1 5.1 0 0 0 3.7 1.6 5.1 5.1 0 0 0 5.1-5.1 5.1 5.1 0 0 0-5-5.1 5.1 5.1 0 0 0-3.8 1.5h-5V661h19.4z"/>
    </g>
    <path d="M330.8 884.7V826l2.9-6 2.8 6v58.8l3 6.3v1.2h-11.7V891zm362.7 4.1v-58.9l2.8-6 2.9 6v58.9l3 6.2v1.2h-11.8V895z" fill="none" stroke="#0f0"/>
    <path fill="#fff" fill-rule="evenodd" stroke="red" d="M711.3 663.1v120.8h-29.9V663.1z"/>
    <path fill="none" stroke="red" d="M348.5 593.7v190.2h-29.9V593.7z"/>
    <path fill="#fff" fill-rule="evenodd" stroke="red" d="M325 667.4h275.3v29.7H325z"/>
    <path d="M140.8 884.7V826l2.9-6 2.8 6v58.8l3 6.3v1.2h-11.7V891z" fill="none" stroke="#0f0"/>
    <path fill="none" stroke="red" d="M148.6 593.7v190.2h-29.9V593.7zm-31.7-31.3h231.9v29.7H116.9z"/>
    <path d="M326.8 487.5v58.8l2.8 6 2.9-6v-58.8l3-6.3V480h-11.7v1.2zm-190 0v58.8l2.8 6 2.9-6v-58.8l3-6.3V480h-11.7v1.2z" fill="none" stroke="#0f0"/>
    <path fill="#fff" fill-rule="evenodd" stroke="red" d="M369.4 587.9h362.4v29.6H369.4z"/>
    <rect rx="14.2" ry="14.2" transform="rotate(-42.7)" y="821.3" x="-115.2" height="30.1" width="141.7" fill="#fff" fill-rule="evenodd" stroke="red"/>
    <rect width="141.7" height="30.1" x="-20" y="906.5" transform="rotate(-42.7)" ry="14.2" rx="14.2" fill="#fff" fill-rule="evenodd" stroke="red"/>
    <g fill="none" stroke="#00f">
      <path d="M77.1 783.6v-78h39v78zm.1-79.1H116v-19.3h-16v5a5.1 5.1 0 0 1 1.6 3.7 5.1 5.1 0 0 1-5.1 5.1 5.1 5.1 0 0 1-5.1-5.1 5.1 5.1 0 0 1 1.5-3.7v-5H77.2v19.3z"/>
      <path d="M77.6 764.6a19 19 0 0 0 19 19 19 19 0 0 0 19-19 19 19 0 0 0-9-16.2 10.4 10.4 0 0 0 .3-2.7 10.4 10.4 0 0 0-10.3-10.4 10.4 10.4 0 0 0-10.4 10.4 10.4 10.4 0 0 0 .4 2.7 19 19 0 0 0-9 16.2zm-.4 20H116V804h-16v-5a5.1 5.1 0 0 0 1.6-3.7 5.1 5.1 0 0 0-5.1-5.1 5.1 5.1 0 0 0-5.1 5A5.1 5.1 0 0 0 93 799v5H77.2v-19.4z"/>
    </g>
    <path fill="#fff" fill-rule="evenodd" stroke="red" d="M44.5 784.8h666.7v29.3H44.5z"/>
    <circle r="5" cy="680.3" cx="692.2" fill="none" stroke="#0f0"/>
    <circle cx="336.6" cy="682.3" r="5" fill="none" stroke="#0f0"/>
    <circle cx="622.5" cy="682.3" r="5" fill="none" stroke="#0f0"/>
    <circle r="5" cy="680.3" cx="494.5" fill="none" stroke="#0f0"/>
    <path fill="none" stroke="red" d="M74.7 703.7V784H44.6v-80.3z"/>
    <path fill="#fff" fill-rule="evenodd" stroke="red" d="M43.9 672.3h73.6v30H43.9z"/>
    <path d="M52.8 884.7V826l2.9-6 2.8 6v58.8l3 6.3v1.2H49.8V891zm4.7-282.1v58.8l2.9 6 2.8-6v-58.8l3-6.3v-1.2H54.5v1.2zM-25.8 686h58.9l6 2.9-6 2.8h-58.9l-6.2 3h-1.2V683h1.2z" fill="none" stroke="#0f0"/>
    <circle cx="96.5" cy="692.4" r="5" fill="none" stroke="#0f0"/>
    <circle r="5" cy="795.4" cx="95.5" fill="none" stroke="#0f0"/>
    <path fill="#fff" stroke="#0f0" d="M177.6 591.6h8.6v192.9h-8.6zm98.1.8h10.7v192.9h-10.7z"/>
    <path fill="#fff" fill-rule="evenodd" stroke="red" d="M369.2 577.8H732v11.4H369.2z"/>
    <circle r="5" cy="602.7" cx="704.7" fill="none" stroke="#0f0"/>
    <circle cx="576.7" cy="602.7" r="5" fill="none" stroke="#0f0"/>
    <path fill="#fff" stroke="red" d="M152.1 596h165.5v74.1H152.1z"/>
    <circle r="27.1" cy="633.1" cx="234.9" fill="#fff" stroke="#0f0"/>
    <path d="M258.8 646.7l-1.5 2.2-22 11.4-2.8-.1-20.9-13.5-1.2-2.4 1.2-24.8 1.5-2.3 22.1-11.4 2.7.2 20.9 13.5 1.2 2.4z" fill="#fff" stroke="#0f0"/>
    <rect width="66.3" height="35.4" x="-685.6" y="207.7" transform="rotate(-90.8)" ry="17.7" rx="17.7" fill="#fff" fill-rule="evenodd" stroke="red"/>
    <rect width="194.3" height="27.1" x="-373.6" y="667.4" transform="rotate(-34.9)" ry="12" rx="14.2" fill="#fff" fill-rule="evenodd" stroke="red"/>
    <circle cx="98.1" cy="763.1" r="5" fill="none" stroke="#0f0"/>
    <circle r="15.4" cy="633.1" cx="234.9" fill="#fff" stroke="#0f0"/>
    <rect width="189" height="30.1" x="-564.2" y="373.3" transform="rotate(-75.2)" ry="10.9" rx="14.2" fill="#fff" fill-rule="evenodd" stroke="red"/>
    <circle r="9.7" cy="633.1" cx="234.9" fill="none" stroke="#0f0"/>
    <circle r="5" cy="669.2" cx="231.5" fill="none" stroke="#0f0"/>
  </g>
</svg>
